%YAML 1.1
%TAG !u! tag:unity3d.com,2011:
--- !u!74 &7400000
AnimationClip:
  m_ObjectHideFlags: 0
  m_PrefabParentObject: {fileID: 0}
  m_PrefabInternal: {fileID: 0}
  m_Name: Jump
  serializedVersion: 6
  m_Legacy: 0
  m_Compressed: 0
  m_UseHighQualityCurve: 1
  m_RotationCurves: []
  m_CompressedRotationCurves: []
  m_EulerCurves: []
  m_PositionCurves: []
  m_ScaleCurves: []
  m_FloatCurves: []
  m_PPtrCurves:
  - curve:
    - time: 0
      value: {fileID: 21300000, guid: 69962cd9dad70f843a00f4964b57fe00, type: 3}
    - time: 0.083333336
      value: {fileID: 21300000, guid: f7e79302f5a8e2e4e962033056b37e77, type: 3}
    - time: 0.16666667
      value: {fileID: 21300000, guid: cfe6ca175ccf57e47ad9eae90adce2fd, type: 3}
    - time: 0.25
      value: {fileID: 21300000, guid: fda2d75310630124990e4600ccb60f3e, type: 3}
    - time: 0.33333334
      value: {fileID: 21300000, guid: 54b8bfdf305d08a4094c6957379f1107, type: 3}
    - time: 0.41666666
      value: {fileID: 21300000, guid: 410daf428034be84b8ebbc5ce28fceb1, type: 3}
    - time: 0.5
      value: {fileID: 21300000, guid: 70b4b748b4992814391497a44491bcb8, type: 3}
    - time: 0.5833333
      value: {fileID: 21300000, guid: 4744baf7e64b2544291d96da021d1e8d, type: 3}
    - time: 0.6666667
      value: {fileID: 21300000, guid: 515c716bbd406234289a8eba36bcf2ae, type: 3}
    - time: 0.75
      value: {fileID: 21300000, guid: 5350bb99f040f604a8a7392da5f913a5, type: 3}
    attribute: m_Sprite
    path: 
    classID: 212
    script: {fileID: 0}
  m_SampleRate: 12
  m_WrapMode: 0
  m_Bounds:
    m_Center: {x: 0, y: 0, z: 0}
    m_Extent: {x: 0, y: 0, z: 0}
  m_ClipBindingConstant:
    genericBindings:
    - serializedVersion: 2
      path: 0
      attribute: 0
      script: {fileID: 0}
      typeID: 212
      customType: 23
      isPPtrCurve: 1
    pptrCurveMapping:
    - {fileID: 21300000, guid: 69962cd9dad70f843a00f4964b57fe00, type: 3}
    - {fileID: 21300000, guid: f7e79302f5a8e2e4e962033056b37e77, type: 3}
    - {fileID: 21300000, guid: cfe6ca175ccf57e47ad9eae90adce2fd, type: 3}
    - {fileID: 21300000, guid: fda2d75310630124990e4600ccb60f3e, type: 3}
    - {fileID: 21300000, guid: 54b8bfdf305d08a4094c6957379f1107, type: 3}
    - {fileID: 21300000, guid: 410daf428034be84b8ebbc5ce28fceb1, type: 3}
    - {fileID: 21300000, guid: 70b4b748b4992814391497a44491bcb8, type: 3}
    - {fileID: 21300000, guid: 4744baf7e64b2544291d96da021d1e8d, type: 3}
    - {fileID: 21300000, guid: 515c716bbd406234289a8eba36bcf2ae, type: 3}
    - {fileID: 21300000, guid: 5350bb99f040f604a8a7392da5f913a5, type: 3}
  m_AnimationClipSettings:
    serializedVersion: 2
    m_AdditiveReferencePoseClip: {fileID: 0}
    m_AdditiveReferencePoseTime: 0
    m_StartTime: 0
    m_StopTime: 0.8333333
    m_OrientationOffsetY: 0
    m_Level: 0
    m_CycleOffset: 0
    m_HasAdditiveReferencePose: 0
    m_LoopTime: 1
    m_LoopBlend: 0
    m_LoopBlendOrientation: 0
    m_LoopBlendPositionY: 0
    m_LoopBlendPositionXZ: 0
    m_KeepOriginalOrientation: 0
    m_KeepOriginalPositionY: 1
    m_KeepOriginalPositionXZ: 0
    m_HeightFromFeet: 0
    m_Mirror: 0
  m_EditorCurves: []
  m_EulerEditorCurves: []
  m_HasGenericRootTransform: 0
  m_HasMotionFloatCurves: 0
  m_GenerateMotionCurves: 0
  m_Events: []
